date	Confirmed	Probable
2020-03-06	1	
2020-03-09	6	
2020-03-10	9	
2020-03-11	7	
2020-03-12	2	1.0
2020-03-13	8	
2020-03-14	19	3.0
2020-03-15	9	2.0
2020-03-16	21	4.0
2020-03-17	8	3.0
2020-03-18	27	2.0
2020-03-19	27	5.0
2020-03-20	34	13.0
2020-03-21	28	7.0
2020-03-22	30	17.0
2020-03-23	38	15.0
2020-03-24	51	16.0
2020-03-25	49	14.0
2020-03-26	26	27.0
2020-03-27	71	14.0
2020-03-28	37	17.0
2020-03-29	18	16.0
2020-03-30	28	12.0
2020-03-31	110	23.0
2020-04-01	80	30.0
2020-04-02	85	38.0
2020-04-03	37	34.0
2020-04-04	38	22.0
2020-04-05	34	8.0
2020-04-06	20	14.0
2020-04-07	39	14.0
2020-04-08	24	9.0
2020-04-09	32	14.0
2020-04-10	37	12.0
2020-04-11	48	17.0
2020-04-12	54	14.0
2020-04-13	57	11.0
2020-04-14	119	8.0
2020-04-15	119	14.0
2020-04-16	135	11.0
2020-04-17	201	12.0
2020-04-18	175	12.0
2020-04-19	185	16.0
2020-04-20	178	5.0
2020-04-21	252	12.0
2020-04-22	284	11.0
2020-04-23	336	5.0
2020-04-24	222	13.0
2020-04-25	222	1.0
2020-04-26	192	14.0
2020-04-27	173	6.0
2020-04-28	244	5.0
2020-04-29	225	7.0
2020-04-30	215	8.0
2020-05-01	120	21.0
2020-05-02	111	1.0
2020-05-03	68	2.0
2020-05-04	74	5.0
2020-05-05	60	2.0
2020-05-06	62	3.0
2020-05-07	81	6.0
2020-05-08	77	
2020-05-09	83	2.0
2020-05-10	69	2.0
2020-05-11	47	
2020-05-12	69	1.0
2020-05-13	62	
2020-05-14	60	1.0
2020-05-15	71	2.0
2020-05-16	54	
2020-05-17	46	
2020-05-18	38	
2020-05-19	43	
2020-05-20	27	
2020-05-21	30	
2020-05-22	27	
2020-05-23	32	
2020-05-24	27	2.0
2020-05-25	13	
2020-05-26	19	
2020-05-27	27	
2020-05-28	27	1.0
2020-05-29	30	
2020-05-30	20	
2020-05-31	31	3.0
2020-06-01	21	
2020-06-02	19	
2020-06-03	17	1.0
2020-06-04	19	
2020-06-05	37	
2020-06-06	22	1.0
2020-06-07	33	
2020-06-08	24	
2020-06-09	38	
2020-06-10	48	
2020-06-11	42	1.0
2020-06-12	27	
2020-06-13	35	
2020-06-14	53	
2020-06-15	35	1.0
2020-06-16	45	
2020-06-17	46	
2020-06-18	46	
2020-06-19	47	
2020-06-20	30	
2020-06-21	33	
2020-06-22	38	3.0
2020-06-23	45	
2020-06-24	24	1.0
2020-06-25	36	
2020-06-26	66	
2020-06-27	38	
2020-06-28	68	
2020-06-29	44	
2020-06-30	33	
2020-07-01	64	
2020-07-02	55	
2020-07-03	30	
2020-07-04	47	1.0
2020-07-05	48	
2020-07-06	44	5.0
2020-07-07	40	4.0
2020-07-08	42	1.0
2020-07-09	69	5.0
2020-07-10	62	1.0
2020-07-11	87	3.0
2020-07-12	78	
2020-07-13	87	
2020-07-14	78	7.0
2020-07-15	115	
2020-07-16	94	9.0
2020-07-17	166	2.0
2020-07-18	102	
2020-07-19	85	3.0
2020-07-20	123	8.0
2020-07-21	132	4.0
2020-07-22	103	10.0
2020-07-23	114	2.0
2020-07-24	117	
2020-07-25	96	2.0
2020-07-26	89	
2020-07-27	78	3.0
2020-07-28	131	
2020-07-29	118	
2020-07-30	123	1.0
2020-07-31	99	
2020-08-01	61	6.0
2020-08-02	71	2.0
2020-08-03	62	2.0
2020-08-04	93	1.0
2020-08-05	57	4.0
2020-08-06	126	3.0
2020-08-07	110	1.0
2020-08-08	96	1.0
2020-08-09	45	
2020-08-10	86	
2020-08-11	116	
2020-08-12	72	
2020-08-13	80	1.0
2020-08-14	104	
2020-08-15	81	2.0
2020-08-16	94	1.0
2020-08-17	84	1.0
2020-08-18	81	
2020-08-19	101	
2020-08-20	139	1.0
2020-08-21	88	
2020-08-22	102	1.0
2020-08-23	68	2.0
2020-08-24	71	2.0
2020-08-25	124	1.0
2020-08-26	104	
2020-08-27	152	1.0
2020-08-28	141	1.0
2020-08-29	180	1.0
2020-08-30	105	4.0
2020-08-31	151	1.0
2020-09-01	109	
2020-09-02	126	6.0
2020-09-03	153	4.0
2020-09-04	169	
2020-09-05	167	1.0
2020-09-06	134	
2020-09-07	147	
2020-09-08	96	1.0
2020-09-09	113	
2020-09-10	115	1.0
2020-09-11	115	
2020-09-12	163	3.0
2020-09-13	137	
2020-09-14	121	2.0
2020-09-15	169	1.0
2020-09-16	181	1.0
2020-09-17	125	1.0
2020-09-18	137	
2020-09-19	119	1.0
2020-09-20	152	
2020-09-21	156	
2020-09-22	128	
2020-09-23	129	1.0
2020-09-24	123	1.0
2020-09-25	174	1.0
2020-09-26	155	
2020-09-27	122	
2020-09-28	126	2.0
2020-09-29	173	3.0
2020-09-30	149	5.0
2020-10-01	146	3.0
2020-10-02	221	1.0
2020-10-03	190	5.0
2020-10-04	203	10.0
2020-10-05	202	5.0
2020-10-06	238	5.0
2020-10-07	213	5.0
2020-10-08	184	3.0
2020-10-09	257	1.0
2020-10-10	250	2.0
2020-10-11	239	1.0
2020-10-12	217	4.0
2020-10-13	234	7.0
2020-10-14	239	4.0
2020-10-15	315	6.0
2020-10-16	303	4.0
2020-10-17	223	2.0
2020-10-18	370	2.0
2020-10-19	324	
2020-10-20	392	
2020-10-21	430	6.0
2020-10-22	433	9.0
2020-10-23	382	7.0
2020-10-24	570	5.0
2020-10-25	500	1.0
2020-10-26	414	3.0
2020-10-27	400	8.0
2020-10-28	476	2.0
2020-10-29	612	3.0
2020-10-30	578	10.0
2020-10-31	522	1.0
2020-11-01	602	4.0
2020-11-02	566	4.0
2020-11-03	537	1.0
2020-11-04	768	3.0
2020-11-05	732	6.0
2020-11-06	820	6.0
2020-11-07	636	5.0
2020-11-08	623	7.0
2020-11-09	717	8.0
2020-11-10	674	3.0
2020-11-11	840	15.0
2020-11-12	891	7.0
2020-11-13	1019	1.0
2020-11-14	971	11.0
2020-11-15	843	10.0
2020-11-16	755	10.0
2020-11-17	724	5.0
2020-11-18	1097	2.0
2020-11-19	1133	5.0
2020-11-20	1327	5.0
2020-11-21	1560	1.0
2020-11-22	1518	9.0
2020-11-23	1110	4.0
2020-11-24	1257	9.0
2020-11-25	1077	3.0
2020-11-26	1222	3.0
2020-11-27	1711	2.0
2020-11-28	1594	
2020-11-29	1711	
2020-11-30	1313	4.0
2020-12-01	1691	2.0
2020-12-02	1841	6.0
2020-12-03	1789	7.0
2020-12-04	1873	2.0
2020-12-05	1823	4.0
2020-12-06	1725	
2020-12-07	1786	7.0
2020-12-08	1487	9.0
2020-12-09	1587	4.0
2020-12-10	1736	9.0
2020-12-11	1594	1.0
2020-12-12	1707	1.0
2020-12-13	1867	1.0
2020-12-14	1336	
2020-12-15	1283	1.0
2020-12-16	1577	3.0
2020-12-17	1451	3.0
2020-12-18	1367	1.0
2020-12-19	1301	6.0
2020-12-20	1250	1.0
2020-12-21	1050	1.0
2020-12-22	1334	3.0
2020-12-23	1130	1.0
2020-12-24	1239	1.0
2020-12-25	903	2.0
2020-12-26	479	9.0
2020-12-27	952	4.0
2020-12-28	893	5.0
2020-12-29	1354	11.0
2020-12-30	1259	5.0
2020-12-31	1358	4.0
2021-01-01	918	3.0
2021-01-02	464	1.0
2021-01-03	1138	2.0
2021-01-04	871	3.0
2021-01-05	1145	4.0
2021-01-06	962	6.0
2021-01-07	1173	3.0
2021-01-08	979	4.0
2021-01-09	805	4.0
2021-01-10	625	3.0
2021-01-11	669	5.0
2021-01-12	866	3.0
2021-01-13	965	3.0
2021-01-14	777	4.0
2021-01-15	692	12.0
2021-01-16	739	4.0
2021-01-17	458	1.0
2021-01-18	461	1.0
2021-01-19	666	4.0
2021-01-20	671	1.0
2021-01-21	640	2.0
2021-01-22	568	1.0
2021-01-23	447	3.0
2021-01-24	357	2.0
2021-01-25	362	2.0
2021-01-26	466	2.0
2021-01-27	473	5.0
2021-01-28	516	4.0
2021-01-29	388	
2021-01-30	466	2.0
2021-01-31	352	
2021-02-01	277	4.0
2021-02-02	456	1.0
2021-02-03	400	5.0
2021-02-04	394	
2021-02-05	359	3.0
2021-02-06	347	5.0
2021-02-07	267	1.0
2021-02-08	219	6.0
2021-02-09	335	5.0
2021-02-10	347	5.0
2021-02-11	315	4.0
2021-02-12	300	2.0
2021-02-13	286	1.0
2021-02-14	247	2.0
2021-02-15	259	1.0
2021-02-16	286	
2021-02-17	418	1.0
2021-02-18	333	1.0
2021-02-19	382	
2021-02-20	325	1.0
2021-02-21	268	2.0
2021-02-22	274	6.0
2021-02-23	424	1.0
2021-02-24	403	3.0
2021-02-25	354	1.0
2021-02-26	411	3.0
2021-02-27	298	3.0
2021-02-28	286	2.0
2021-03-01	258	4.0
2021-03-02	400	2.0
2021-03-03	333	
2021-03-04	403	4.0
2021-03-05	330	6.0
2021-03-06	300	8.0
2021-03-07	242	18.0
2021-03-08	244	16.0
2021-03-09	383	13.0
2021-03-10	397	18.0
2021-03-11	445	14.0
2021-03-12	425	15.0
2021-03-13	376	19.0
