18	percent	number of tests	percent	number of tests
2020-03-06	5.00	60	NA	NA
2020-03-07	0.00	281	NA	NA
2020-03-08	0.00	454	NA	NA
2020-03-09	1.71	643	1.35	NA
2020-03-10	1.91	784	0.81	NA
2020-03-11	0.60	1334	1.09	NA
2020-03-12	0.26	1147	1.21	NA
2020-03-13	1.20	1587	1.34	NA
2020-03-14	1.93	1555	1.14	NA
2020-03-15	0.87	1834	1.32	NA
2020-03-16	2.63	1485	1.52	NA
2020-03-17	0.48	2083	1.59	NA
2020-03-18	1.88	2878	1.48	NA
2020-03-19	1.67	2869	1.53	NA
2020-03-20	1.64	3593	1.39	NA
2020-03-21	1.17	3507	1.58	NA
2020-03-22	1.26	2854	1.84	NA
2020-03-23	1.65	2728	1.99	NA
2020-03-24	1.81	3143	2.10	NA
2020-03-25	3.65	1645	2.22	NA
2020-03-26	2.74	1316	2.18	NA
2020-03-27	2.41	3697	2.11	NA
2020-03-28	2.00	2145	2.22	NA
2020-03-29	0.98	1929	2.03	NA
2020-03-30	1.18	2549	1.97	NA
2020-03-31	2.58	4771	1.97	NA
2020-04-01	2.30	3610	2.06	NA
2020-04-02	2.34	4009	2.39	NA
2020-04-03	2.44	1723	2.60	NA
2020-04-04	2.60	1807	2.56	NA
2020-04-05	3.29	1186	2.54	NA
2020-04-06	2.66	941	2.42	NA
2020-04-07	2.29	1705	2.27	NA
2020-04-08	2.17	1288	2.20	NA
2020-04-09	1.48	2291	2.09	NA
2020-04-10	1.40	2851	2.11	NA
2020-04-11	2.14	2240	2.45	NA
2020-04-12	2.52	2305	2.69	NA
2020-04-13	2.76	2136	3.18	NA
2020-04-14	4.67	2572	3.56	NA
2020-04-15	3.85	3092	3.93	NA
2020-04-16	4.94	3099	4.22	NA
2020-04-17	4.01	5238	4.50	NA
2020-04-18	4.79	3800	4.67	NA
2020-04-19	4.51	4370	5.15	NA
2020-04-20	4.71	4010	5.54	NA
2020-04-21	5.91	4313	5.71	NA
2020-04-22	7.20	4057	5.73	NA
2020-04-23	7.67	4471	5.73	NA
2020-04-24	5.16	4531	5.79	NA
2020-04-25	4.97	4664	5.79	NA
2020-04-26	4.49	4301	5.41	NA
2020-04-27	5.14	3444	4.94	NA
2020-04-28	5.89	4362	4.81	NA
2020-04-29	4.53	5077	4.42	NA
2020-04-30	4.37	5035	4.11	NA
2020-05-01	4.25	2847	3.79	NA
2020-05-02	2.25	4970	3.24	NA
2020-05-03	2.37	3244	2.91	NA
2020-05-04	2.89	2557	2.60	NA
2020-05-05	2.01	3032	2.30	NA
2020-05-06	2.22	2882	2.26	NA
2020-05-07	2.18	4135	2.23	NA
2020-05-08	2.17	3781	2.07	NA
2020-05-09	1.97	4214	2.05	NA
2020-05-10	2.18	3260	1.95	NA
2020-05-11	1.79	2794	1.81	NA
2020-05-12	1.86	3756	1.73	NA
2020-05-13	1.47	4409	1.65	NA
2020-05-14	1.26	4767	1.56	NA
2020-05-15	1.57	4700	1.48	NA
2020-05-16	1.40	3986	1.47	NA
2020-05-17	1.57	3189	1.39	NA
2020-05-18	1.24	3230	1.33	NA
2020-05-19	1.80	2503	1.23	NA
2020-05-20	0.92	3277	1.15	NA
2020-05-21	0.83	3722	1.05	NA
2020-05-22	0.86	3823	0.94	NA
2020-05-23	0.83	3861	0.77	NA
2020-05-24	0.87	3234	0.75	NA
2020-05-25	0.44	2958	0.74	NA
2020-05-26	0.65	3056	0.73	NA
2020-05-27	0.78	3603	0.70	NA
2020-05-28	0.74	3903	0.73	NA
2020-05-29	0.78	3862	0.78	NA
2020-05-30	0.62	3364	0.77	NA
2020-05-31	1.09	3133	0.71	NA
2020-06-01	0.77	2734	0.66	NA
2020-06-02	0.62	4055	0.66	NA
2020-06-03	0.38	4781	0.63	NA
2020-06-04	0.39	5416	0.57	NA
2020-06-05	0.75	5604	0.53	NA
2020-06-06	0.44	5870	0.54	NA
2020-06-07	0.64	5491	0.59	NA
2020-06-08	0.52	4976	0.61	NA
2020-06-09	0.69	5923	0.57	NA
2020-06-10	0.73	6850	0.58	NA
2020-06-11	0.51	8477	0.60	NA
2020-06-12	0.44	6183	0.60	NA
2020-06-13	0.52	7665	0.60	NA
2020-06-14	0.76	7459	0.59	NA
2020-06-15	0.58	6366	0.60	NA
2020-06-16	0.67	6970	0.63	NA
2020-06-17	0.64	7821	0.61	NA
2020-06-18	0.57	9100	0.57	NA
2020-06-19	0.65	7400	0.58	NA
2020-06-20	0.38	8324	0.60	NA
2020-06-21	0.51	6895	0.57	NA
2020-06-22	0.61	6542	0.57	NA
2020-06-23	0.81	6518	0.64	NA
2020-06-24	0.47	6367	0.68	NA
2020-06-25	0.57	6634	0.75	NA
2020-06-26	1.13	6396	0.75	NA
2020-06-27	0.63	6510	0.73	NA
2020-06-28	1.03	6997	0.78	NA
2020-06-29	0.64	7199	0.83	NA
2020-06-30	0.62	6952	0.75	NA
2020-07-01	0.86	7675	0.79	NA
2020-07-02	0.91	6739	0.80	NA
2020-07-03	0.55	5960	0.82	NA
2020-07-04	0.92	5545	0.84	NA
2020-07-05	1.09	5602	0.81	NA
2020-07-06	0.78	6014	0.82	NA
2020-07-07	0.78	6268	0.86	NA
2020-07-08	0.66	6970	0.88	NA
2020-07-09	0.96	7804	0.88	NA
2020-07-10	0.86	7529	1.00	NA
2020-07-11	1.01	10003	1.10	NA
2020-07-12	1.12	7595	1.24	NA
2020-07-13	1.64	5810	1.35	NA
2020-07-14	1.44	6386	1.49	NA
2020-07-15	1.62	8225	1.58	NA
2020-07-16	1.73	6484	1.62	NA
2020-07-17	1.89	9719	1.63	NA
2020-07-18	1.62	6856	1.67	NA
2020-07-19	1.39	6961	1.64	NA
2020-07-20	1.69	7817	1.59	NA
2020-07-21	1.77	8156	1.49	NA
2020-07-22	1.37	8230	1.41	NA
2020-07-23	1.40	8741	1.41	NA
2020-07-24	1.18	10589	1.33	NA
2020-07-25	1.07	9855	1.30	NA
2020-07-26	1.36	7443	1.31	NA
2020-07-27	1.13	7910	1.33	NA
2020-07-28	1.57	8989	1.30	NA
2020-07-29	1.43	8674	1.26	NA
2020-07-30	1.55	8392	1.22	NA
2020-07-31	1.01	11514	1.20	NA
2020-08-01	0.75	9148	1.17	NA
2020-08-02	1.10	6934	1.08	NA
2020-08-03	1.02	7246	1.08	NA
2020-08-04	1.36	7203	1.13	NA
2020-08-05	0.76	7991	1.16	NA
2020-08-06	1.55	8561	1.09	NA
2020-08-07	1.36	8781	1.15	NA
2020-08-08	0.97	10167	1.18	NA
2020-08-09	0.63	7414	1.21	NA
2020-08-10	1.39	7061	1.15	NA
2020-08-11	1.57	8079	1.10	NA
2020-08-12	1.01	7751	1.09	NA
2020-08-13	1.12	8210	1.17	NA
2020-08-14	0.99	10890	1.14	NA
2020-08-15	0.95	8658	1.06	NA
2020-08-16	1.13	8693	1.09	NA
2020-08-17	1.19	8034	1.14	NA
2020-08-18	1.01	9037	1.13	NA
2020-08-19	1.25	9294	1.14	NA
2020-08-20	1.45	9870	1.10	NA
2020-08-21	0.90	10177	1.07	NA
2020-08-22	1.05	10096	1.13	NA
2020-08-23	0.87	8498	1.12	NA
2020-08-24	0.96	8446	1.12	NA
2020-08-25	1.43	9247	1.19	NA
2020-08-26	1.19	10104	1.29	NA
2020-08-27	1.42	10997	1.32	NA
2020-08-28	1.44	10222	1.42	NA
2020-08-29	1.75	11225	1.41	NA
2020-08-30	1.02	12265	1.45	NA
2020-08-31	1.69	9343	1.46	NA
2020-09-01	1.38	8305	1.48	NA
2020-09-02	1.44	9557	1.46	NA
2020-09-03	1.50	10721	1.49	NA
2020-09-04	1.61	11395	1.42	NA
2020-09-05	1.58	11374	1.37	NA
2020-09-06	1.20	12101	1.34	NA
2020-09-07	1.26	12570	1.27	NA
2020-09-08	1.00	10507	1.17	NA
2020-09-09	1.25	9716	1.07	NA
2020-09-10	0.98	11983	1.05	NA
2020-09-11	0.94	12763	1.01	NA
2020-09-12	0.89	18920	1.07	NA
2020-09-13	1.00	14459	1.04	NA
2020-09-14	0.98	12994	1.05	NA
2020-09-15	1.42	12549	1.06	NA
2020-09-16	1.05	18136	1.06	NA
2020-09-17	1.05	12707	1.06	NA
2020-09-18	1.03	13830	1.09	NA
2020-09-19	0.89	14062	1.03	NA
2020-09-20	0.97	16262	1.03	NA
2020-09-21	1.24	13500	1.00	NA
2020-09-22	1.00	13662	1.04	NA
2020-09-23	1.04	13663	1.04	NA
2020-09-24	0.85	16685	1.04	NA
2020-09-25	1.28	14630	1.01	NA
2020-09-26	0.90	18582	1.04	NA
2020-09-27	0.95	14136	1.04	NA
2020-09-28	1.08	12583	1.08	NA
2020-09-29	1.16	15567	1.11	NA
2020-09-30	1.05	15243	1.18	NA
2020-10-01	1.16	14111	1.26	NA
2020-10-02	1.50	15887	1.27	NA
2020-10-03	1.35	14895	1.41	NA
2020-10-04	1.49	14479	1.50	NA
2020-10-05	1.20	18043	1.53	NA
2020-10-06	2.12	11770	1.55	NA
2020-10-07	1.68	13981	1.63	NA
2020-10-08	1.34	15355	1.64	NA
2020-10-09	1.67	16199	1.76	NA
2020-10-10	1.93	13888	1.70	NA
2020-10-11	1.57	16677	1.75	NA
2020-10-12	2.03	11474	1.90	NA
2020-10-13	1.71	14902	1.95	NA
2020-10-14	2.02	12797	1.94	NA
2020-10-15	2.36	14180	2.13	NA
2020-10-16	2.03	16035	2.21	NA
2020-10-17	1.85	12566	2.38	NA
2020-10-18	2.89	13598	2.54	NA
2020-10-19	2.63	13020	2.62	NA
2020-10-20	2.87	14954	2.68	NA
2020-10-21	3.17	14332	2.93	NA
2020-10-22	2.88	15547	3.10	NA
2020-10-23	2.50	16387	3.38	NA
2020-10-24	3.54	17134	3.53	NA
2020-10-25	4.13	12690	3.64	NA
2020-10-26	4.59	9651	3.92	NA
2020-10-27	3.93	10961	4.19	NA
2020-10-28	3.94	12859	4.28	NA
2020-10-29	4.82	13648	4.46	NA
2020-10-30	4.40	13828	4.75	NA
2020-10-31	4.17	13203	4.90	NA
2020-11-01	5.34	11638	5.16	NA
2020-11-02	6.62	8971	5.25	NA
2020-11-03	5.04	11166	5.47	NA
2020-11-04	5.74	14099	5.67	NA
2020-11-05	5.47	14152	5.72	NA
2020-11-06	5.89	15030	5.95	NA
2020-11-07	5.57	12165	6.05	NA
2020-11-08	5.70	11613	6.09	NA
2020-11-09	8.24	9325	6.30	NA
2020-11-10	5.75	12678	6.55	NA
2020-11-11	5.99	14925	6.72	NA
2020-11-12	6.93	14035	6.97	NA
2020-11-13	7.68	14318	6.79	NA
2020-11-14	6.72	15603	6.81	NA
2020-11-15	7.45	12217	6.99	NA
2020-11-16	7.00	11539	7.00	NA
2020-11-17	5.92	13454	6.97	NA
2020-11-18	7.23	16466	7.23	NA
2020-11-19	7.03	17765	7.35	NA
2020-11-20	7.44	19352	7.60	NA
2020-11-21	8.53	19569	7.97	NA
2020-11-22	8.29	19560	7.98	NA
2020-11-23	8.76	13646	8.11	NA
2020-11-24	8.53	15714	8.25	NA
2020-11-25	7.31	16008	8.07	NA
2020-11-26	7.93	16353	8.14	NA
2020-11-27	8.40	21747	8.15	NA
2020-11-28	7.30	23381	8.30	NA
2020-11-29	8.78	20590	8.66	NA
2020-11-30	8.80	15882	9.11	NA
2020-12-01	9.61	18518	9.27	NA
2020-12-02	9.78	19691	9.40	NA
2020-12-03	11.13	17308	9.43	NA
2020-12-04	9.46	21183	9.58	NA
2020-12-05	8.26	23536	9.56	NA
2020-12-06	8.99	20467	9.58	NA
2020-12-07	9.83	19193	9.26	NA
2020-12-08	9.46	16890	9.10	NA
2020-12-09	9.95	16886	9.12	NA
2020-12-10	8.84	21088	9.19	NA
2020-12-11	8.40	20344	9.05	NA
2020-12-12	8.34	21830	8.80	NA
2020-12-13	9.49	20489	8.58	NA
2020-12-14	8.86	16463	8.45	NA
2020-12-15	7.71	17647	8.38	NA
2020-12-16	8.44	19959	8.28	NA
2020-12-17	7.93	19661	7.98	NA
2020-12-18	7.92	18620	7.82	NA
2020-12-19	7.62	18062	7.78	NA
2020-12-20	7.36	18426	7.67	NA
2020-12-21	7.76	14287	7.60	NA
2020-12-22	7.45	19357	7.42	NA
2020-12-23	7.68	15671	7.41	NA
2020-12-24	7.38	17968	7.85	NA
2020-12-25	6.70	14233	7.95	NA
2020-12-26	7.57	6952	8.24	NA
2020-12-27	10.43	9725	8.24	NA
2020-12-28	8.43	11090	8.42	NA
2020-12-29	9.49	14863	8.56	NA
2020-12-30	7.69	16951	8.33	NA
2020-12-31	8.65	16433	8.26	NA
2021-01-01	7.66	12756	8.31	NA
2021-01-02	5.98	8167	8.00	NA
2021-01-03	9.93	12057	7.87	NA
2021-01-04	8.80	10364	7.66	NA
2021-01-05	7.32	16198	7.63	NA
2021-01-06	6.72	14889	7.75	NA
2021-01-07	7.21	16834	7.27	NA
2021-01-08	7.48	13602	7.07	NA
2021-01-09	6.80	12357	6.84	NA
2021-01-10	6.58	9887	6.76	NA
2021-01-11	7.36	9394	6.56	NA
2021-01-12	5.70	15959	6.31	NA
2021-01-13	6.17	16291	6.29	NA
2021-01-14	5.83	13628	6.13	NA
2021-01-15	5.76	12455	5.90	NA
2021-01-16	6.66	11509	5.75	NA
2021-01-17	5.45	8595	5.57	NA
2021-01-18	5.73	8267	5.45	NA
2021-01-19	4.66	14912	5.39	NA
2021-01-20	4.87	14075	5.07	NA
2021-01-21	5.04	13032	5.01	NA
2021-01-22	5.34	10897	4.83	NA
2021-01-23	4.41	10238	NA	NA
2021-01-24	5.05	7187	NA	NA
2021-01-25	4.43	8312	NA	NA
